date,inviter,action_type,invitee
2018-06-12 9:41,A,recommends,B
2018-06-14 9:41,B,accepts,
2018-06-16 9:41,B,recommends,C
2018-06-17 9:41,C,accepts,
2018-06-19 9:41,C,recommends,D
2018-06-23 9:41,B,recommends,D
2018-06-25 9:41,D,accepts,